<svg xmlns="http://www.w3.org/2000/svg" width="23.4" height="23.4" viewBox="0 0 23.4 23.4">
    <defs>
        <style>
            .cls-2{stroke:#9b9b9b;fill:#9b9b9b;stroke-width:.5px}
        </style>
    </defs>
    <g id="ic_all" transform="translate(-82.245 -219.199)">
        <path id="ic_photo-insert" fill="none" stroke="#9b9b9b" stroke-width="1.4px" d="M103 239.435v-17.112a2.452 2.452 0 0 0-2.444-2.444h-17.11A2.452 2.452 0 0 0 81 222.323v17.111a2.453 2.453 0 0 0 2.444 2.445h17.111a2.453 2.453 0 0 0 2.445-2.444z" transform="translate(1.945 .02)"/>
        <g id="ic_all-2" transform="translate(86.445 227.399)">
            <path id="패스_384" d="M92.252 235.307h.013a.525.525 0 0 1 .494.346l2.018 5.58h-.812l-.6-1.667h-2.31l-.591 1.667h-.741l2.035-5.581a.525.525 0 0 1 .494-.345zm-.967 3.6h1.843l-.917-2.557h-.026z" class="cls-2" transform="translate(-89.724 -235.307)"/>
            <path id="패스_385" d="M101.748 235.307h.776v4.867a.4.4 0 0 0 .4.4h2.212v.661h-2.988a.4.4 0 0 1-.4-.4z" class="cls-2" transform="translate(-95.859 -235.307)"/>
            <path id="패스_386" d="M110.658 235.307h.776v4.868a.4.4 0 0 0 .4.4h2.213v.661h-2.989a.4.4 0 0 1-.4-.4z" class="cls-2" transform="translate(-100.405 -235.307)"/>
        </g>
    </g>
</svg>
